…
<br/> We observe that some observations are significantly more
influential on the fit than others. Based on the pattern in the Cook’s
distance plot, we will try to remove 1% of the observations
(corresponding to 0.0023 Cook’s distance). These mostly correspond to
the observations with very high rent. <br/>

``` r
House_Rent[cooks.distance(model_lr) > quantile(cooks.distance(model_lr), 0.99),]
```

    ## # A tibble: 48 × 13
    ##      BHK    Rent  Size Area_type   Area_Locality    City  Furnishing Pref_Tenant
    ##    <dbl>   <dbl> <dbl> <fct>       <fct>            <fct> <fct>      <fct>      
    ##  1     4   30000  4000 Super Area  Sakher Bazar, P… Kolk… Furnished  Bachelors/…
    ##  2     4  300000  1600 Carpet Area Trump Tower, Wo… Mumb… Semi-Furn… Bachelors/…
    ##  3     5  350000  1880 Carpet Area Runwal Elegante… Mumb… Furnished  Family     
    ##  4     3  300000  1600 Super Area  Chaitanya Tower… Mumb… Semi-Furn… Bachelors/…
    ##  5     4  600000  2500 Carpet Area Mount Marry, Ba… Mumb… Semi-Furn… Bachelors/…
    ##  6     3  330000  1650 Carpet Area buena vista      Mumb… Furnished  Bachelors  
    ##  7     4  230000  3700 Carpet Area Lake Superior, … Mumb… Furnished  Bachelors/…
    ##  8     4 1000000  3064 Carpet Area Raheja Artesia,… Mumb… Semi-Furn… Family     
    ##  9     4  280000  2800 Carpet Area JVPD Scheme      Mumb… Furnished  Family     
    ## 10     3  160000  2000 Carpet Area Flora Heights, … Mumb… Furnished  Family     
    ## # ℹ 38 more rows
    ## # ℹ 5 more variables: Bathroom <dbl>, POC <fct>, Floor <dbl>, Max_Floor <dbl>,
    ## #   Month <dbl>
…
